File Streams for Big Data • paquet
…
library(paquet)
library(dplyr)
library(mrgsolve)

data <- expand.ev(
  ID = seq(100), 
  amt = c(100, 300, 1000), 
  ii = 24, 
  addl = 9
) %>% as_tibble() %>% mutate(dose = amt)

This isn’t huge, but we’re just illustrating

data
. # A tibble: 300 × 8
.       ID  time   amt    ii  addl   cmt  evid  dose
.    <int> <dbl> <dbl> <dbl> <dbl> <dbl> <dbl> <dbl>
.  1     1     0   100    24     9     1     1   100
.  2     2     0   100    24     9     1     1   100
.  3     3     0   100    24     9     1     1   100
.  4     4     0   100    24     9     1     1   100
.  5     5     0   100    24     9     1     1   100
.  6     6     0   100    24     9     1     1   100
.  7     7     0   100    24     9     1     1   100
.  8     8     0   100    24     9     1     1   100
.  9     9     0   100    24     9     1     1   100
. 10    10     0   100    24     9     1     1   100
. # … with 290 more rows
A workflow might be to create chunks to process in parallel on a worker node. To do this, we’ll create a file stream based on chunks of the input data

fs <- new_stream(data, nchunk = 5, locker = "foo/mrgsolve", format = "feather")

This returns a list of data chunks

fs[[5]]
. $i
. [1] 5
. 
. $file
. [1] "foo/mrgsolve/5-5.feather"
. 
. $x
. # A tibble: 60 × 8
.       ID  time   amt    ii  addl   cmt  evid  dose
.    <int> <dbl> <dbl> <dbl> <dbl> <dbl> <dbl> <dbl>
.  1   241     0  1000    24     9     1     1  1000
.  2   242     0  1000    24     9     1     1  1000
.  3   243     0  1000    24     9     1     1  1000
.  4   244     0  1000    24     9     1     1  1000
.  5   245     0  1000    24     9     1     1  1000
.  6   246     0  1000    24     9     1     1  1000
.  7   247     0  1000    24     9     1     1  1000
.  8   248     0  1000    24     9     1     1  1000
.  9   249     0  1000    24     9     1     1  1000
. 10   250     0  1000    24     9     1     1  1000
. # … with 50 more rows
…
This doesn’t read in the data, but just gets a handle on what is there. Using arrow, we can filter and select the data that we want from the feather files before actually reading the files so that we don’t have to read data that we don’t ultimately want

sims <- 
  ds %>%
  filter(dose == 100) %>% 
  select(ID, time, DV) %>% 
  as_tibble()

sims
. # A tibble: 48,200 × 3
.       ID  time    DV
.    <dbl> <dbl> <dbl>
.  1    61   0    0   
.  2    61   0    0   
.  3    61   0.5  1.55
.  4    61   1    2.66
.  5    61   1.5  3.45
.  6    61   2    4.01
.  7    61   2.5  4.40
.  8    61   3    4.66
.  9    61   3.5  4.83
. 10    61   4    4.93
. # … with 48,190 more rows
…
